{
	"__ver": "tinymce:4|addon:1",
	"_id": "qMdvmE0mR7iu1AfCjt6_Gw",
	"build_config": {
		"exclude": [
			"User",
			{
				"class_name": "Config",
				"condition": {
					"key": {
						"$contains": "sys.user.preferences|sys.packageBuilding"
					}
				}
			}
		]
	},
	"changelog": [
	],
	"dependencies": {
		"bower": {
			"angular-ui-tinymce": "0.X",
			"tinymce": "4.X"
		}
	},
	"description": "WYSIWYG FieldEditor for html fields\nhttps://github.com/angular-ui/ui-tinymce",
	"key": "addon.tinymce",
	"manifest": {
		"AngularModule": {
			"_Xxf4PliT3SWLpUmifjSVA": "tinymce:1|addon:2"
		},
		"FieldTypeUiSpec": {
			"yzItsBrUQr-SZfH53sXVVQ": "sys:2|dbui-legacy:2|tinymce:1|addon:1"
		}
	},
	"name": "TinyMCE",
	"on_install_fn": "function(db, _) {\n    const MY_MOD_ID='_Xxf4PliT3SWLpUmifjSVA';\n    return {\n        post:function() {\n            return db.AngularModule.findOne({name:'noonian.dbui2'}).then(dbui2Mod=>{\n                let modDeps = _.map(dbui2Mod.mod_dependencies, '_id');\n                if(modDeps.indexOf(MY_MOD_ID) < 0) {\n                    dbui2Mod.mod_dependencies.push({_id:MY_MOD_ID});\n                    dbui2Mod.markModified('mod_dependencies');\n                    return dbui2Mod.save().then(()=>'added module dependency to noonian.dbui2');\n                }\n            });\n        }\n    }\n}",
	"package_file": {
		"attachment_id": "DC6S2vdCT-i8ZExFvwCvew",
		"filename": "addon.tinymce.0.0.1.json",
		"type": "application/json"
	},
	"version": "0.0.1"
}